PWD /Users/Beruto/PycharmProjects/TFM_Project/_build/latex
INPUT /usr/local/texlive/2015basic/texmf.cnf
INPUT /usr/local/texlive/2015basic/texmf-dist/web2c/texmf.cnf
INPUT /usr/local/texlive/2015basic/texmf-var/web2c/pdftex/pdflatex.fmt
INPUT TaxiML.tex
OUTPUT TaxiML.log
INPUT sphinxmanual.cls
INPUT sphinxmanual.cls
INPUT /usr/local/texlive/2015basic/texmf-dist/tex/latex/base/report.cls
INPUT /usr/local/texlive/2015basic/texmf-dist/tex/latex/base/report.cls
INPUT /usr/local/texlive/2015basic/texmf-dist/tex/latex/base/size10.clo
INPUT /usr/local/texlive/2015basic/texmf-dist/tex/latex/base/size10.clo
INPUT /usr/local/texlive/2015basic/texmf-dist/tex/latex/base/inputenc.sty
INPUT /usr/local/texlive/2015basic/texmf-dist/tex/latex/base/inputenc.sty
INPUT /usr/local/texlive/2015basic/texmf-dist/tex/latex/base/utf8.def
INPUT /usr/local/texlive/2015basic/texmf-dist/tex/latex/base/utf8.def
INPUT /usr/local/texlive/2015basic/texmf-dist/tex/latex/base/t1enc.dfu
INPUT /usr/local/texlive/2015basic/texmf-dist/tex/latex/base/t1enc.dfu
INPUT /usr/local/texlive/2015basic/texmf-dist/tex/latex/base/ot1enc.dfu
INPUT /usr/local/texlive/2015basic/texmf-dist/tex/latex/base/ot1enc.dfu
INPUT /usr/local/texlive/2015basic/texmf-dist/tex/latex/base/omsenc.dfu
INPUT /usr/local/texlive/2015basic/texmf-dist/tex/latex/base/omsenc.dfu
INPUT /usr/local/texlive/2015basic/texmf-dist/tex/latex/cmap/cmap.sty
INPUT /usr/local/texlive/2015basic/texmf-dist/tex/latex/cmap/cmap.sty
INPUT /usr/local/texlive/2015basic/texmf-dist/tex/latex/base/fontenc.sty
INPUT /usr/local/texlive/2015basic/texmf-dist/tex/latex/base/fontenc.sty
INPUT /usr/local/texlive/2015basic/texmf-dist/tex/latex/base/t1enc.def
INPUT /usr/local/texlive/2015basic/texmf-dist/tex/latex/base/t1enc.def
INPUT /usr/local/texlive/2015basic/texmf-dist/fonts/tfm/jknappen/ec/ecrm1000.tfm
INPUT /usr/local/texlive/2015basic/texmf-dist/tex/latex/cmap/t1.cmap
OUTPUT TaxiML.pdf
INPUT /usr/local/texlive/2015basic/texmf-dist/tex/latex/cmap/t1.cmap
INPUT /usr/local/texlive/2015basic/texmf-dist/tex/latex/amsmath/amsmath.sty
INPUT /usr/local/texlive/2015basic/texmf-dist/tex/latex/amsmath/amsmath.sty
INPUT /usr/local/texlive/2015basic/texmf-dist/tex/latex/amsmath/amstext.sty
INPUT /usr/local/texlive/2015basic/texmf-dist/tex/latex/amsmath/amstext.sty
INPUT /usr/local/texlive/2015basic/texmf-dist/tex/latex/amsmath/amsgen.sty
INPUT /usr/local/texlive/2015basic/texmf-dist/tex/latex/amsmath/amsgen.sty
INPUT /usr/local/texlive/2015basic/texmf-dist/tex/latex/amsmath/amsbsy.sty
INPUT /usr/local/texlive/2015basic/texmf-dist/tex/latex/amsmath/amsbsy.sty
INPUT /usr/local/texlive/2015basic/texmf-dist/tex/latex/amsmath/amsopn.sty
INPUT /usr/local/texlive/2015basic/texmf-dist/tex/latex/amsmath/amsopn.sty
INPUT /usr/local/texlive/2015basic/texmf-dist/tex/latex/amsfonts/amssymb.sty
INPUT /usr/local/texlive/2015basic/texmf-dist/tex/latex/amsfonts/amssymb.sty
INPUT /usr/local/texlive/2015basic/texmf-dist/tex/latex/amsfonts/amsfonts.sty
INPUT /usr/local/texlive/2015basic/texmf-dist/tex/latex/amsfonts/amsfonts.sty
INPUT /usr/local/texlive/2015basic/texmf-dist/tex/generic/babel/babel.sty
INPUT /usr/local/texlive/2015basic/texmf-dist/tex/generic/babel/babel.sty
INPUT /usr/local/texlive/2015basic/texmf-dist/tex/generic/babel-english/english.ldf
INPUT /usr/local/texlive/2015basic/texmf-dist/tex/generic/babel-english/english.ldf
INPUT /usr/local/texlive/2015basic/texmf-dist/tex/generic/babel-english/english.ldf
INPUT /usr/local/texlive/2015basic/texmf-dist/tex/generic/babel/babel.def
INPUT /usr/local/texlive/2015basic/texmf-dist/tex/latex/psnfss/times.sty
INPUT /usr/local/texlive/2015basic/texmf-dist/tex/latex/psnfss/times.sty
INPUT /usr/local/texlive/2015basic/texmf-dist/tex/latex/fncychap/fncychap.sty
INPUT /usr/local/texlive/2015basic/texmf-dist/tex/latex/fncychap/fncychap.sty
INPUT sphinx.sty
INPUT sphinx.sty
INPUT /usr/local/texlive/2015basic/texmf-dist/tex/generic/oberdiek/ltxcmds.sty
INPUT /usr/local/texlive/2015basic/texmf-dist/tex/generic/oberdiek/ltxcmds.sty
INPUT /usr/local/texlive/2015basic/texmf-dist/tex/latex/graphics/graphicx.sty
INPUT /usr/local/texlive/2015basic/texmf-dist/tex/latex/graphics/graphicx.sty
INPUT /usr/local/texlive/2015basic/texmf-dist/tex/latex/graphics/keyval.sty
INPUT /usr/local/texlive/2015basic/texmf-dist/tex/latex/graphics/keyval.sty
INPUT /usr/local/texlive/2015basic/texmf-dist/tex/latex/graphics/graphics.sty
INPUT /usr/local/texlive/2015basic/texmf-dist/tex/latex/graphics/graphics.sty
INPUT /usr/local/texlive/2015basic/texmf-dist/tex/latex/graphics/trig.sty
INPUT /usr/local/texlive/2015basic/texmf-dist/tex/latex/graphics/trig.sty
INPUT /usr/local/texlive/2015basic/texmf-dist/tex/latex/latexconfig/graphics.cfg
INPUT /usr/local/texlive/2015basic/texmf-dist/tex/latex/latexconfig/graphics.cfg
INPUT /usr/local/texlive/2015basic/texmf-dist/tex/latex/pdftex-def/pdftex.def
INPUT /usr/local/texlive/2015basic/texmf-dist/tex/latex/pdftex-def/pdftex.def
INPUT /usr/local/texlive/2015basic/texmf-dist/tex/generic/oberdiek/infwarerr.sty
INPUT /usr/local/texlive/2015basic/texmf-dist/tex/generic/oberdiek/infwarerr.sty
INPUT /usr/local/texlive/2015basic/texmf-dist/tex/latex/fancyhdr/fancyhdr.sty
INPUT /usr/local/texlive/2015basic/texmf-dist/tex/latex/fancyhdr/fancyhdr.sty
INPUT /usr/local/texlive/2015basic/texmf-dist/tex/latex/base/textcomp.sty
INPUT /usr/local/texlive/2015basic/texmf-dist/tex/latex/base/textcomp.sty
INPUT /usr/local/texlive/2015basic/texmf-dist/tex/latex/base/ts1enc.def
INPUT /usr/local/texlive/2015basic/texmf-dist/tex/latex/base/ts1enc.def
INPUT /usr/local/texlive/2015basic/texmf-dist/tex/latex/base/ts1enc.dfu
INPUT /usr/local/texlive/2015basic/texmf-dist/tex/latex/base/ts1enc.dfu
INPUT /usr/local/texlive/2015basic/texmf-dist/tex/latex/titlesec/titlesec.sty
INPUT /usr/local/texlive/2015basic/texmf-dist/tex/latex/titlesec/titlesec.sty
INPUT /usr/local/texlive/2015basic/texmf-dist/tex/latex/tabulary/tabulary.sty
INPUT /usr/local/texlive/2015basic/texmf-dist/tex/latex/tabulary/tabulary.sty
INPUT /usr/local/texlive/2015basic/texmf-dist/tex/latex/tools/array.sty
INPUT /usr/local/texlive/2015basic/texmf-dist/tex/latex/tools/array.sty
INPUT /usr/local/texlive/2015basic/texmf-dist/tex/latex/tools/longtable.sty
INPUT /usr/local/texlive/2015basic/texmf-dist/tex/latex/tools/longtable.sty
INPUT /usr/local/texlive/2015basic/texmf-dist/tex/latex/varwidth/varwidth.sty
INPUT /usr/local/texlive/2015basic/texmf-dist/tex/latex/varwidth/varwidth.sty
INPUT sphinxmulticell.sty
INPUT sphinxmulticell.sty
INPUT /usr/local/texlive/2015basic/texmf-dist/tex/latex/base/makeidx.sty
INPUT /usr/local/texlive/2015basic/texmf-dist/tex/latex/base/makeidx.sty
INPUT /usr/local/texlive/2015basic/texmf-dist/tex/latex/framed/framed.sty
INPUT /usr/local/texlive/2015basic/texmf-dist/tex/latex/framed/framed.sty
INPUT /usr/local/texlive/2015basic/texmf-dist/tex/latex/xcolor/xcolor.sty
INPUT /usr/local/texlive/2015basic/texmf-dist/tex/latex/xcolor/xcolor.sty
INPUT /usr/local/texlive/2015basic/texmf-dist/tex/latex/xcolor/xcolor.sty
INPUT /usr/local/texlive/2015basic/texmf-dist/tex/latex/latexconfig/color.cfg
INPUT /usr/local/texlive/2015basic/texmf-dist/tex/latex/latexconfig/color.cfg
INPUT /usr/local/texlive/2015basic/texmf-dist/tex/latex/fancyvrb/fancyvrb.sty
INPUT /usr/local/texlive/2015basic/texmf-dist/tex/latex/fancyvrb/fancyvrb.sty
INPUT footnotehyper-sphinx.sty
INPUT footnotehyper-sphinx.sty
INPUT /usr/local/texlive/2015basic/texmf-dist/tex/latex/float/float.sty
INPUT /usr/local/texlive/2015basic/texmf-dist/tex/latex/float/float.sty
